<svg xmlns="http://www.w3.org/2000/svg" width="75.229" height="75.228" viewBox="0 0 75.229 75.228">
  <path id="Path_106" data-name="Path 106" d="M29.548,61.677l-3.808,3.785a8.529,8.529,0,0,1-11.966,0,8.285,8.285,0,0,1,0-11.773L27.785,39.795c2.9-2.882,8.365-7.123,12.347-3.174A4.664,4.664,0,1,0,46.7,30.006c-6.761-6.714-16.767-5.473-25.479,3.174L7.21,47.078a17.595,17.595,0,0,0,0,24.995,17.856,17.856,0,0,0,25.1,0l3.813-3.785a4.661,4.661,0,0,0-6.573-6.611Zm42.467-54C64.741.469,54.576.079,47.852,6.755l-4.744,4.711a4.658,4.658,0,1,0,6.564,6.611l4.749-4.706c3.479-3.461,8.045-2.026,11.03.926a8.281,8.281,0,0,1,0,11.769L50.5,40.9c-6.836,6.775-10.043,3.6-11.411,2.243a4.658,4.658,0,1,0-6.564,6.611A14.715,14.715,0,0,0,43,54.4c4.594,0,9.451-2.313,14.072-6.9L72.024,32.681a17.6,17.6,0,0,0-.009-25Z" transform="translate(-2 -1.998)"/>
</svg>
